<?xml version="1.0" encoding="utf-8"?>
<!-- Generator: Adobe Illustrator 21.0.0, SVG Export Plug-In . SVG Version: 6.00 Build 0)  -->
<svg version="1.1" id="Layer_1" xmlns="http://www.w3.org/2000/svg" xmlns:xlink="http://www.w3.org/1999/xlink" x="0px" y="0px"
	 viewBox="0 0 240 80" style="enable-background:new 0 0 240 80;" xml:space="preserve">
<style type="text/css">
	.st0{fill:#828282;}
</style>
<g>
	<path class="st0" d="M13.7,26.2h2.8v22.2h13.9V51H13.7V26.2z"/>
	<path class="st0" d="M33.1,38.7L33.1,38.7c0-6.9,5.1-12.9,12.7-12.9s12.6,5.9,12.6,12.7v0.1c0,6.8-5.1,12.8-12.7,12.8
		S33.1,45.5,33.1,38.7z M55.5,38.7L55.5,38.7c0-5.7-4.1-10.3-9.8-10.3S36,32.9,36,38.6v0.1c0,5.6,4.1,10.2,9.8,10.2
		S55.5,44.3,55.5,38.7z"/>
	<path class="st0" d="M63.2,38.7L63.2,38.7c0-6.9,5-12.9,12.4-12.9c4.2,0,6.8,1.2,9.2,3.3l-1.8,2.1c-1.9-1.7-4-2.8-7.5-2.8
		c-5.5,0-9.4,4.6-9.4,10.2v0.1c0,5.9,3.8,10.3,9.8,10.3c2.8,0,5.5-1.1,7.2-2.5v-6.2h-7.5v-2.5h10.2v9.9c-2.3,2.1-5.8,3.8-9.9,3.8
		C68,51.5,63.2,45.8,63.2,38.7z"/>
	<path class="st0" d="M91,38.7L91,38.7c0-6.9,5.1-12.9,12.7-12.9s12.6,5.9,12.6,12.7v0.1c0,6.8-5.1,12.8-12.7,12.8S91,45.5,91,38.7z
		 M113.3,38.7L113.3,38.7c0-5.7-4.1-10.3-9.8-10.3s-9.7,4.5-9.7,10.2v0.1c0,5.6,4.1,10.2,9.8,10.2S113.3,44.3,113.3,38.7z"/>
	<path class="st0" d="M132.8,26.2h2.8v11h14.3v-11h2.8V51h-2.8V39.9h-14.3V51h-2.8V26.2z"/>
	<path class="st0" d="M159.7,26.2h17.9v2.5h-15.1v8.5H176v2.5h-13.5v8.7h15.3V51h-18.1V26.2z"/>
	<path class="st0" d="M183.4,26.2h10.7c3,0,5.5,0.9,7,2.5c1.2,1.2,1.9,2.9,1.9,4.9v0.1c0,4.1-2.8,6.5-6.7,7.2l7.6,10.1h-3.4
		l-7.2-9.6h-7.1V51h-2.8V26.2z M193.8,38.9c3.7,0,6.4-1.9,6.4-5.1v-0.1c0-3-2.3-4.9-6.3-4.9h-7.6v10.1H193.8z"/>
	<path class="st0" d="M209,26.2h17.9v2.5h-15.1v8.5h13.5v2.5h-13.5v8.7h15.3V51H209V26.2z"/>
</g>
</svg>
