{
    "key": "group_582debacd5e38",
    "title": "Icon Card",
    "fields": [
        {
            "clone": [
                "group_582a1cdf8a389"
            ],
            "prefix_label": 0,
            "prefix_name": 0,
            "display": "seamless",
            "layout": "block",
            "key": "field_582debacda490",
            "label": "Card",
            "name": "card",
            "type": "clone",
            "instructions": "",
            "required": 0,
            "conditional_logic": 0,
            "wrapper": {
                "width": "",
                "class": "",
                "id": ""
            }
        }
    ],
    "location": [
        [
            {
                "param": "post_status",
                "operator": "==",
                "value": "acf-disabled"
            }
        ]
    ],
    "menu_order": 0,
    "position": "normal",
    "style": "default",
    "label_placement": "top",
    "instruction_placement": "label",
    "hide_on_screen": "",
    "active": 1,
    "description": "",
    "modified": 1481064610
}